2,GoClient,This is a Go Protobuf client!!,1,FirstItemName,222,0
2,GoClient,This is a Go Protobuf client!!,2,SecondItemName,333,1
2,GoClient,This is a Go Protobuf client!!,3,ThirdItemName,444,2
2,GoClient,This is a Go Protobuf client!!,4,FourthItemName,555,0
2,GoClient,This is a Go Protobuf client!!,5,FifthItemName,666,3
2,GoClient,This is a Go Protobuf client!!,1,FirstItemName,222,0
2,GoClient,This is a Go Protobuf client!!,2,SecondItemName,333,1
2,GoClient,This is a Go Protobuf client!!,3,ThirdItemName,444,2
2,GoClient,This is a Go Protobuf client!!,4,FourthItemName,555,0
2,GoClient,This is a Go Protobuf client!!,5,FifthItemName,666,3
2,GoClient,This is a Go Protobuf client!!,1,FirstItemName,222,0
2,GoClient,This is a Go Protobuf client!!,2,SecondItemName,333,1
2,GoClient,This is a Go Protobuf client!!,3,ThirdItemName,444,2
2,GoClient,This is a Go Protobuf client!!,4,FourthItemName,555,0
2,GoClient,This is a Go Protobuf client!!,5,FifthItemName,666,3
